%YAML 1.1
%TAG !u! tag:unity3d.com,2011:
--- !u!1045 &1
EditorBuildSettings:
  m_ObjectHideFlags: 0
  serializedVersion: 2
  m_Scenes:
  - enabled: 1
    path: Assets/Cenas/Menu.unity
    guid: 4dc40e298362e174aaa85b649ebaaff5
  - enabled: 1
    path: Assets/Cenas/Gameplay.unity
    guid: 9621dec76801ab448acf064477b6958c
  m_configObjects: {}
